<svg width="25" height="17" viewBox="0 0 25 17" fill="none" xmlns="http://www.w3.org/2000/svg">
<path d="M24.0164 5.34461C24.0202 5.41412 24.0151 5.48486 23.9978 5.55513L22.4558 11.7885C22.378 12.1025 22.0995 12.3233 21.7793 12.325L12.527 12.3722C12.5258 12.3722 12.5247 12.3722 12.5235 12.3722H3.27103C2.94916 12.3722 2.66869 12.1507 2.59093 11.835L1.04888 5.57808C1.03112 5.50592 1.02598 5.4332 1.03047 5.36189C0.433925 5.17197 0 4.60785 0 3.94306C0 3.12281 0.660281 2.45556 1.47196 2.45556C2.28365 2.45556 2.94393 3.12281 2.94393 3.94306C2.94393 4.40498 2.73449 4.81827 2.40654 5.09131L4.3372 7.05708C4.82514 7.55395 5.50224 7.83879 6.19495 7.83879C7.01402 7.83879 7.79495 7.44572 8.28673 6.78716L11.4596 2.53867C11.1931 2.2695 11.028 1.89758 11.028 1.4875C11.028 0.66725 11.6883 0 12.5 0C13.3117 0 13.972 0.66725 13.972 1.4875C13.972 1.8853 13.8157 2.24636 13.5631 2.51354C13.5639 2.51468 13.565 2.51562 13.5658 2.51685L16.7157 6.77705C17.2073 7.44194 17.991 7.83889 18.8124 7.83889C19.5115 7.83889 20.1689 7.56377 20.6632 7.06416L22.606 5.10085C22.2711 4.82791 22.0561 4.41065 22.0561 3.94306C22.0561 3.12281 22.7164 2.45556 23.528 2.45556C24.3397 2.45556 25 3.12281 25 3.94306C25 4.59009 24.5883 5.14042 24.0164 5.34461ZM22.3053 14.5917C22.3053 14.2005 21.9915 13.8833 21.6044 13.8833H3.47355C3.08645 13.8833 2.77262 14.2005 2.77262 14.5917V16.2917C2.77262 16.6829 3.08645 17 3.47355 17H21.6044C21.9915 17 22.3053 16.6829 22.3053 16.2917V14.5917Z" fill="#EDA51E"/>
</svg>
