<?xml version="1.0" encoding="UTF-8"?>
<svg width="43px" height="58px" viewBox="0 0 43 58" version="1.1" xmlns="http://www.w3.org/2000/svg" xmlns:xlink="http://www.w3.org/1999/xlink">
    <!-- Generator: Sketch 58 (84663) - https://sketch.com -->
    <title>bell-icon</title>
    <desc>Created with Sketch.</desc>
    <g id="Share-Numbers-+-block-element" stroke="none" stroke-width="1" fill="none" fill-rule="evenodd">
        <path d="M14.929442,51.077891 L28.0707391,51.077891 L28.0718251,51.1232219 L28.0718251,51.1232219 C28.0718251,54.9211641 25.1295618,58 21.5000905,58 C17.9550256,58 15.0655771,55.0627007 14.9331014,51.3869982 L14.929442,51.077891 Z M21.4999699,0 C23.0664998,0 24.3482254,1.27576675 24.4483638,2.88844392 L24.4546621,3.0917154 L24.4546621,6.58458986 C31.2443099,7.9971848 36.390533,14.1831817 36.5630308,21.659615 L36.5675004,22.04746 L36.5675004,33.3902737 L42.4820736,42.48195 C43.1049651,43.4395799 43.1709709,44.6791703 42.6531818,45.7033444 C42.1678676,46.6632709 41.2443283,47.2862643 40.2185307,47.3603887 L40.0121073,47.3678326 L2.98783241,47.3678326 C1.88069767,47.3678326 0.864426422,46.7273923 0.346757974,45.7033444 C-0.136399245,44.7475664 -0.111216505,43.6040269 0.400820526,42.6772143 L0.517986768,42.4820762 L6.43255996,33.3904 L6.43255996,22.0475863 C6.43255996,14.5278147 11.4637043,8.23830631 18.1956923,6.66202675 L18.5453983,6.58471613 L18.5453983,3.0917154 C18.5453983,1.38429552 19.8681679,0 21.4999699,0 Z" id="bell-icon" fill="#000000" fill-rule="nonzero"></path>
    </g>
</svg>